<?xml version="1.0" encoding="UTF-8"?>
<testsuite name="SubtractTest" tests="1" skipped="0" failures="0" errors="0" timestamp="2015-10-03T13:37:48" hostname="Rakeshs-MacBook-Pro.local" time="0.002">
  <properties/>
  <testcase name="testSubtract" classname="SubtractTest" time="0.002"/>
  <system-out><![CDATA[]]></system-out>
  <system-err><![CDATA[]]></system-err>
</testsuite>
